<?xml version="1.0" encoding="UTF-8" standalone="no"?>
<!-- Created with Inkscape (http://www.inkscape.org/) -->

<svg
   xmlns:dc="http://purl.org/dc/elements/1.1/"
   xmlns:cc="http://creativecommons.org/ns#"
   xmlns:rdf="http://www.w3.org/1999/02/22-rdf-syntax-ns#"
   xmlns:svg="http://www.w3.org/2000/svg"
   xmlns="http://www.w3.org/2000/svg"
   xmlns:sodipodi="http://sodipodi.sourceforge.net/DTD/sodipodi-0.dtd"
   xmlns:inkscape="http://www.inkscape.org/namespaces/inkscape"
   width="20mm"
   height="20mm"
   viewBox="0 0 20 20"
   version="1.1"
   id="svg8"
   sodipodi:docname="unit-oscilloscope-off.svg"
   inkscape:version="0.92.5 (2060ec1f9f, 2020-04-08)">
  <defs
     id="defs2">
    <clipPath
       clipPathUnits="userSpaceOnUse"
       id="clipPath4667">
      <rect
         style="opacity:1;vector-effect:none;fill:none;fill-opacity:1;stroke:#000000;stroke-width:0.09999999;stroke-linecap:butt;stroke-linejoin:miter;stroke-miterlimit:4;stroke-dasharray:none;stroke-dashoffset:0;stroke-opacity:1"
         id="rect4669"
         width="8"
         height="8"
         x="6"
         y="281.04999"
         rx="1"
         ry="1" />
    </clipPath>
  </defs>
  <sodipodi:namedview
     id="base"
     pagecolor="#ffffff"
     bordercolor="#666666"
     borderopacity="1.0"
     inkscape:pageopacity="0.0"
     inkscape:pageshadow="2"
     inkscape:zoom="21.968234"
     inkscape:cx="37.700062"
     inkscape:cy="44.443912"
     inkscape:document-units="mm"
     inkscape:current-layer="layer1"
     showgrid="false"
     inkscape:window-width="3200"
     inkscape:window-height="1709"
     inkscape:window-x="0"
     inkscape:window-y="0"
     inkscape:window-maximized="1"
     inkscape:snap-bbox="true"
     inkscape:snap-bbox-edge-midpoints="true"
     inkscape:snap-bbox-midpoints="true"
     inkscape:bbox-nodes="true"
     showguides="true"
     inkscape:guide-bbox="true">
    <sodipodi:guide
       position="0,0"
       orientation="0,75.590551"
       id="guide4518"
       inkscape:locked="false" />
    <sodipodi:guide
       position="19.999999,0"
       orientation="-75.590551,0"
       id="guide4520"
       inkscape:locked="false" />
    <sodipodi:guide
       position="19.999999,19.999999"
       orientation="0,-75.590551"
       id="guide4522"
       inkscape:locked="false" />
    <sodipodi:guide
       position="0,19.999999"
       orientation="75.590551,0"
       id="guide4524"
       inkscape:locked="false" />
    <sodipodi:guide
       position="9.9999997,9.9999997"
       orientation="1,0"
       id="guide4572"
       inkscape:locked="false" />
    <sodipodi:guide
       position="2.0499999,17.950012"
       orientation="1,0"
       id="guide4578"
       inkscape:locked="false" />
    <sodipodi:guide
       position="17.949999,17.949999"
       orientation="1,0"
       id="guide4580"
       inkscape:locked="false" />
    <sodipodi:guide
       position="2.0499999,16"
       orientation="0,1"
       id="guide4586"
       inkscape:locked="false" />
    <sodipodi:guide
       position="9.9999997,7.900012"
       orientation="0,1"
       id="guide4624"
       inkscape:locked="false" />
    <sodipodi:guide
       position="12.598336,3.9500181"
       orientation="0,1"
       id="guide4628"
       inkscape:locked="false" />
    <sodipodi:guide
       position="-50.099998,9.9500119"
       orientation="1,0"
       id="guide4753"
       inkscape:locked="false" />
    <sodipodi:guide
       position="70.050001,19.950012"
       orientation="1,0"
       id="guide4755"
       inkscape:locked="false" />
  </sodipodi:namedview>
  <metadata
     id="metadata5">
    <rdf:RDF>
      <cc:Work
         rdf:about="">
        <dc:format>image/svg+xml</dc:format>
        <dc:type
           rdf:resource="http://purl.org/dc/dcmitype/StillImage" />
        <dc:title></dc:title>
      </cc:Work>
    </rdf:RDF>
  </metadata>
  <g
     inkscape:label="Layer 1"
     inkscape:groupmode="layer"
     id="layer1"
     transform="translate(0,-277)">
    <rect
       style="opacity:1;vector-effect:none;fill:#aaccff;fill-opacity:1;stroke:#3771c8;stroke-width:0.09999997;stroke-linecap:butt;stroke-linejoin:miter;stroke-miterlimit:4;stroke-dasharray:none;stroke-dashoffset:0;stroke-opacity:1"
       id="rect4582"
       width="15.899999"
       height="20"
       x="2.05"
       y="277"
       rx="1.9999998"
       ry="2.0000002" />
    <rect
       style="opacity:1;vector-effect:none;fill:#1a1a1a;fill-opacity:1;stroke:none;stroke-width:0.10000002;stroke-linecap:butt;stroke-linejoin:miter;stroke-miterlimit:4;stroke-dasharray:none;stroke-dashoffset:0;stroke-opacity:1"
       id="rect4590-3"
       width="52.100006"
       height="0.5"
       x="17.949999"
       y="280.75" />
    <rect
       style="opacity:1;vector-effect:none;fill:#1a1a1a;fill-opacity:1;stroke:none;stroke-width:0.1;stroke-linecap:butt;stroke-linejoin:miter;stroke-miterlimit:4;stroke-dasharray:none;stroke-dashoffset:0;stroke-opacity:1"
       id="rect4590-3-6"
       width="52.150002"
       height="0.5"
       x="-50.099998"
       y="280.75" />
    <rect
       style="opacity:1;vector-effect:none;fill:#ffffff;fill-opacity:1;stroke:#000000;stroke-width:0.1;stroke-linecap:butt;stroke-linejoin:miter;stroke-miterlimit:4;stroke-dasharray:none;stroke-dashoffset:0;stroke-opacity:1"
       id="rect4622"
       width="8"
       height="8"
       x="6"
       y="281.04999"
       rx="1"
       ry="1" />
    <circle
       style="opacity:1;vector-effect:none;fill:#ff0000;fill-opacity:1;stroke:#000000;stroke-width:0.1;stroke-linecap:butt;stroke-linejoin:miter;stroke-miterlimit:4;stroke-dasharray:none;stroke-dashoffset:0;stroke-opacity:1"
       id="path4630"
       cx="10"
       cy="293.04999"
       r="2" />
    <path
       style="fill:none;stroke:#0055d4;stroke-width:0.05;stroke-linecap:butt;stroke-linejoin:miter;stroke-miterlimit:4;stroke-dasharray:none;stroke-opacity:1"
       d="m 9.9874998,281.02499 v 8.09999"
       id="path4818-5-3"
       inkscape:connector-curvature="0" />
    <path
       style="fill:none;stroke:#0055d4;stroke-width:0.05;stroke-linecap:butt;stroke-linejoin:miter;stroke-miterlimit:4;stroke-dasharray:none;stroke-opacity:1"
       d="m 8.6500001,281.02499 v 8.09999"
       id="path4818-5-3-5"
       inkscape:connector-curvature="0" />
    <path
       style="fill:none;stroke:#0055d4;stroke-width:0.05;stroke-linecap:butt;stroke-linejoin:miter;stroke-miterlimit:4;stroke-dasharray:none;stroke-opacity:1"
       d="m 11.325,281.02499 v 8.09999"
       id="path4818-5-3-5-6"
       inkscape:connector-curvature="0" />
    <path
       style="fill:none;stroke:#0055d4;stroke-width:0.05;stroke-linecap:butt;stroke-linejoin:miter;stroke-miterlimit:4;stroke-dasharray:none;stroke-opacity:1"
       d="m 12.6625,281.02499 v 8.09999"
       id="path4818-5-3-5-6-2"
       inkscape:connector-curvature="0" />
    <path
       style="fill:none;stroke:#0055d4;stroke-width:0.05;stroke-linecap:butt;stroke-linejoin:miter;stroke-miterlimit:4;stroke-dasharray:none;stroke-opacity:1"
       d="m 7.3125003,281.02499 v 8.09999"
       id="path4818-5-3-5-6-2-9"
       inkscape:connector-curvature="0" />
    <path
       style="fill:none;stroke:#0055d4;stroke-width:0.05;stroke-linecap:butt;stroke-linejoin:miter;stroke-miterlimit:4;stroke-dasharray:none;stroke-opacity:1"
       d="M 14.037496,285.07499 H 5.9375057"
       id="path4818-5-3-2"
       inkscape:connector-curvature="0" />
    <path
       style="fill:none;stroke:#0055d4;stroke-width:0.05;stroke-linecap:butt;stroke-linejoin:miter;stroke-miterlimit:4;stroke-dasharray:none;stroke-opacity:1"
       d="M 14.037496,283.73749 H 5.9375057"
       id="path4818-5-3-5-7"
       inkscape:connector-curvature="0" />
    <path
       style="fill:none;stroke:#0055d4;stroke-width:0.05;stroke-linecap:butt;stroke-linejoin:miter;stroke-miterlimit:4;stroke-dasharray:none;stroke-opacity:1"
       d="M 14.037496,286.41249 H 5.9375057"
       id="path4818-5-3-5-6-0"
       inkscape:connector-curvature="0" />
    <path
       style="fill:none;stroke:#0055d4;stroke-width:0.05;stroke-linecap:butt;stroke-linejoin:miter;stroke-miterlimit:4;stroke-dasharray:none;stroke-opacity:1"
       d="M 14.037496,287.74999 H 5.9375057"
       id="path4818-5-3-5-6-2-93"
       inkscape:connector-curvature="0" />
    <path
       style="fill:none;stroke:#0055d4;stroke-width:0.05;stroke-linecap:butt;stroke-linejoin:miter;stroke-miterlimit:4;stroke-dasharray:none;stroke-opacity:1"
       d="M 14.037496,282.39999 H 5.9375057"
       id="path4818-5-3-5-6-2-9-6"
       inkscape:connector-curvature="0" />
    <rect
       style="opacity:1;vector-effect:none;fill:none;fill-opacity:1;stroke:#000000;stroke-width:0.1;stroke-linecap:butt;stroke-linejoin:miter;stroke-miterlimit:4;stroke-dasharray:none;stroke-dashoffset:0;stroke-opacity:1"
       id="rect4622-1"
       width="8"
       height="8"
       x="6"
       y="281.04999"
       rx="1"
       ry="1" />
  </g>
</svg>
