<?xml version="1.0" encoding="UTF-8" standalone="no"?>
<svg
   xmlns:dc="http://purl.org/dc/elements/1.1/"
   xmlns:cc="http://creativecommons.org/ns#"
   xmlns:rdf="http://www.w3.org/1999/02/22-rdf-syntax-ns#"
   xmlns:svg="http://www.w3.org/2000/svg"
   xmlns="http://www.w3.org/2000/svg"
   xmlns:sodipodi="http://sodipodi.sourceforge.net/DTD/sodipodi-0.dtd"
   xmlns:inkscape="http://www.inkscape.org/namespaces/inkscape"
   width="240mm"
   height="125mm"
   viewBox="0 -125 240 125"
   version="1.1"
   id="svg299"
   sodipodi:docname="GuitarPedal_top.svg"
   inkscape:version="0.92.4 (5da689c313, 2019-01-14)">
  <metadata
     id="metadata305">
    <rdf:RDF>
      <cc:Work
         rdf:about="">
        <dc:format>image/svg+xml</dc:format>
        <dc:type
           rdf:resource="http://purl.org/dc/dcmitype/StillImage" />
        <dc:title>OpenSCAD Model</dc:title>
      </cc:Work>
    </rdf:RDF>
  </metadata>
  <defs
     id="defs303" />
  <sodipodi:namedview
     pagecolor="#ffffff"
     bordercolor="#666666"
     borderopacity="1"
     objecttolerance="10"
     gridtolerance="10"
     guidetolerance="10"
     inkscape:pageopacity="0"
     inkscape:pageshadow="2"
     inkscape:window-width="2560"
     inkscape:window-height="1375"
     id="namedview301"
     showgrid="false"
     showguides="true"
     inkscape:document-units="mm"
     inkscape:zoom="1.5"
     inkscape:cx="400.87664"
     inkscape:cy="218.89839"
     inkscape:window-x="0"
     inkscape:window-y="0"
     inkscape:window-maximized="1"
     inkscape:current-layer="svg299" />
  <title
     id="title295">OpenSCAD Model</title>
  <path
     d=" M 240,-125 L 0,-125 L 0,-0 L 240,-0 z M 62.3171,-116.51 L 62.0766,-116.552 L 61.8445,-116.627 L 61.625,-116.734 L 61.4226,-116.871 L 61.2412,-117.034  L 61.0842,-117.221 L 60.9548,-117.428 L 60.8555,-117.651 L 60.7883,-117.886 L 60.7543,-118.128 L 60.7543,-118.372  L 60.7883,-118.614 L 60.8555,-118.849 L 60.9548,-119.072 L 61.0842,-119.279 L 61.2412,-119.466 L 61.4226,-119.629  L 61.625,-119.766 L 61.8445,-119.873 L 62.0766,-119.948 L 62.3171,-119.99 L 62.5611,-119.999 L 62.8039,-119.973  L 63.0408,-119.914 L 63.2671,-119.823 L 63.4786,-119.701 L 63.671,-119.55 L 63.8406,-119.375 L 63.9841,-119.177  L 64.0987,-118.962 L 64.1822,-118.732 L 64.233,-118.494 L 64.25,-118.25 L 64.233,-118.006 L 64.1822,-117.768  L 64.0987,-117.538 L 63.9841,-117.323 L 63.8406,-117.125 L 63.671,-116.95 L 63.4786,-116.799 L 63.2671,-116.677  L 63.0408,-116.586 L 62.8039,-116.527 L 62.5611,-116.501 z M 62.5191,-118.142 L 62.534,-118.145 L 62.5482,-118.151 L 62.5615,-118.159 L 62.5736,-118.168 L 62.5843,-118.179  L 62.5933,-118.192 L 62.6005,-118.205 L 62.6057,-118.22 L 62.6089,-118.235 L 62.61,-118.25 L 62.6089,-118.265  L 62.6057,-118.28 L 62.6005,-118.295 L 62.5933,-118.308 L 62.5843,-118.321 L 62.5736,-118.332 L 62.5615,-118.341  L 62.5482,-118.349 L 62.534,-118.355 L 62.5191,-118.358 L 62.5038,-118.36 L 62.4885,-118.359 L 62.4734,-118.357  L 62.4588,-118.352 L 62.445,-118.345 L 62.4323,-118.337 L 62.4209,-118.326 L 62.411,-118.315 L 62.4029,-118.302  L 62.3966,-118.288 L 62.3924,-118.273 L 62.3903,-118.258 L 62.3903,-118.242 L 62.3924,-118.227 L 62.3966,-118.212  L 62.4029,-118.198 L 62.411,-118.185 L 62.4209,-118.174 L 62.4323,-118.163 L 62.445,-118.155 L 62.4588,-118.148  L 62.4734,-118.143 L 62.4885,-118.141 L 62.5038,-118.14 z M 176.317,-116.51 L 176.077,-116.552 L 175.844,-116.627 L 175.625,-116.734 L 175.423,-116.871 L 175.241,-117.034  L 175.084,-117.221 L 174.955,-117.428 L 174.856,-117.651 L 174.788,-117.886 L 174.754,-118.128 L 174.754,-118.372  L 174.788,-118.614 L 174.856,-118.849 L 174.955,-119.072 L 175.084,-119.279 L 175.241,-119.466 L 175.423,-119.629  L 175.625,-119.766 L 175.844,-119.873 L 176.077,-119.948 L 176.317,-119.99 L 176.561,-119.999 L 176.804,-119.973  L 177.041,-119.914 L 177.267,-119.823 L 177.479,-119.701 L 177.671,-119.55 L 177.841,-119.375 L 177.984,-119.177  L 178.099,-118.962 L 178.182,-118.732 L 178.233,-118.494 L 178.25,-118.25 L 178.233,-118.006 L 178.182,-117.768  L 178.099,-117.538 L 177.984,-117.323 L 177.841,-117.125 L 177.671,-116.95 L 177.479,-116.799 L 177.267,-116.677  L 177.041,-116.586 L 176.804,-116.527 L 176.561,-116.501 z M 176.519,-118.142 L 176.534,-118.145 L 176.548,-118.151 L 176.562,-118.159 L 176.574,-118.168 L 176.584,-118.179  L 176.593,-118.192 L 176.6,-118.205 L 176.606,-118.22 L 176.609,-118.235 L 176.61,-118.25 L 176.609,-118.265  L 176.606,-118.28 L 176.6,-118.295 L 176.593,-118.308 L 176.584,-118.321 L 176.574,-118.332 L 176.562,-118.341  L 176.548,-118.349 L 176.534,-118.355 L 176.519,-118.358 L 176.504,-118.36 L 176.489,-118.359 L 176.473,-118.357  L 176.459,-118.352 L 176.445,-118.345 L 176.432,-118.337 L 176.421,-118.326 L 176.411,-118.315 L 176.403,-118.302  L 176.397,-118.288 L 176.392,-118.273 L 176.39,-118.258 L 176.39,-118.242 L 176.392,-118.227 L 176.397,-118.212  L 176.403,-118.198 L 176.411,-118.185 L 176.421,-118.174 L 176.432,-118.163 L 176.445,-118.155 L 176.459,-118.148  L 176.473,-118.143 L 176.489,-118.141 L 176.504,-118.14 z M 65,-41.25 L 65,-107.25 L 175,-107.25 L 175,-41.25 z M 217.373,-68.2829 L 216.548,-68.4282 L 215.752,-68.6869 L 215,-69.0538 L 214.306,-69.5219 L 213.684,-70.0821  L 213.146,-70.7233 L 212.702,-71.4332 L 212.362,-72.1979 L 212.131,-73.0025 L 212.015,-73.8315 L 212.015,-74.6685  L 212.131,-75.4975 L 212.362,-76.3021 L 212.702,-77.0668 L 213.146,-77.7767 L 213.684,-78.4179 L 214.306,-78.9781  L 215,-79.4462 L 215.752,-79.8131 L 216.548,-80.0718 L 217.373,-80.2171 L 218.209,-80.2463 L 219.042,-80.1588  L 219.854,-79.9563 L 220.63,-79.6428 L 221.355,-79.2242 L 222.015,-78.7089 L 222.596,-78.1067 L 223.088,-77.4295  L 223.481,-76.6904 L 223.768,-75.9038 L 223.942,-75.085 L 224,-74.25 L 223.942,-73.415 L 223.768,-72.5962  L 223.481,-71.8096 L 223.088,-71.0705 L 222.596,-70.3933 L 222.015,-69.7911 L 221.355,-69.2758 L 220.63,-68.8572  L 219.854,-68.5437 L 219.042,-68.3412 L 218.209,-68.2537 z M 218.019,-74.1417 L 218.034,-74.1454 L 218.048,-74.1511 L 218.062,-74.1588 L 218.074,-74.1683 L 218.084,-74.1793  L 218.093,-74.1917 L 218.1,-74.2053 L 218.106,-74.2197 L 218.109,-74.2347 L 218.11,-74.25 L 218.109,-74.2653  L 218.106,-74.2803 L 218.1,-74.2947 L 218.093,-74.3083 L 218.084,-74.3207 L 218.074,-74.3317 L 218.062,-74.3412  L 218.048,-74.3489 L 218.034,-74.3546 L 218.019,-74.3583 L 218.004,-74.3599 L 217.989,-74.3594 L 217.973,-74.3567  L 217.959,-74.352 L 217.945,-74.3453 L 217.932,-74.3367 L 217.921,-74.3264 L 217.911,-74.3147 L 217.903,-74.3016  L 217.897,-74.2876 L 217.892,-74.2729 L 217.89,-74.2577 L 217.89,-74.2423 L 217.892,-74.2271 L 217.897,-74.2124  L 217.903,-74.1984 L 217.911,-74.1853 L 217.921,-74.1736 L 217.932,-74.1633 L 217.945,-74.1547 L 217.959,-74.148  L 217.973,-74.1433 L 217.989,-74.1406 L 218.004,-74.1401 z M 21.3728,-68.2829 L 20.5485,-68.4282 L 19.7524,-68.6869 L 19,-69.0538 L 18.306,-69.5219 L 17.684,-70.0821  L 17.1459,-70.7233 L 16.7023,-71.4332 L 16.3618,-72.1979 L 16.1311,-73.0025 L 16.0146,-73.8315 L 16.0146,-74.6685  L 16.1311,-75.4975 L 16.3618,-76.3021 L 16.7023,-77.0668 L 17.1459,-77.7767 L 17.684,-78.4179 L 18.306,-78.9781  L 19,-79.4462 L 19.7524,-79.8131 L 20.5485,-80.0718 L 21.3728,-80.2171 L 22.2094,-80.2463 L 23.0419,-80.1588  L 23.8541,-79.9563 L 24.6302,-79.6428 L 25.3551,-79.2242 L 26.0148,-78.7089 L 26.5963,-78.1067 L 27.0883,-77.4295  L 27.4813,-76.6904 L 27.7676,-75.9038 L 27.9416,-75.085 L 28,-74.25 L 27.9416,-73.415 L 27.7676,-72.5962  L 27.4813,-71.8096 L 27.0883,-71.0705 L 26.5963,-70.3933 L 26.0148,-69.7911 L 25.3551,-69.2758 L 24.6302,-68.8572  L 23.8541,-68.5437 L 23.0419,-68.3412 L 22.2094,-68.2537 z M 22.0191,-74.1417 L 22.034,-74.1454 L 22.0482,-74.1511 L 22.0615,-74.1588 L 22.0736,-74.1683 L 22.0843,-74.1793  L 22.0933,-74.1917 L 22.1005,-74.2053 L 22.1057,-74.2197 L 22.1089,-74.2347 L 22.11,-74.25 L 22.1089,-74.2653  L 22.1057,-74.2803 L 22.1005,-74.2947 L 22.0933,-74.3083 L 22.0843,-74.3207 L 22.0736,-74.3317 L 22.0615,-74.3412  L 22.0482,-74.3489 L 22.034,-74.3546 L 22.0191,-74.3583 L 22.0038,-74.3599 L 21.9885,-74.3594 L 21.9734,-74.3567  L 21.9588,-74.352 L 21.945,-74.3453 L 21.9323,-74.3367 L 21.9209,-74.3264 L 21.911,-74.3147 L 21.9029,-74.3016  L 21.8966,-74.2876 L 21.8924,-74.2729 L 21.8903,-74.2577 L 21.8903,-74.2423 L 21.8924,-74.2271 L 21.8966,-74.2124  L 21.9029,-74.1984 L 21.911,-74.1853 L 21.9209,-74.1736 L 21.9323,-74.1633 L 21.945,-74.1547 L 21.9588,-74.148  L 21.9734,-74.1433 L 21.9885,-74.1406 L 22.0038,-74.1401 z M 176.317,-33.0096 L 176.077,-33.052 L 175.844,-33.1274 L 175.625,-33.2345 L 175.423,-33.371 L 175.241,-33.5344  L 175.084,-33.7214 L 174.955,-33.9284 L 174.856,-34.1515 L 174.788,-34.3862 L 174.754,-34.6279 L 174.754,-34.8721  L 174.788,-35.1138 L 174.856,-35.3485 L 174.955,-35.5716 L 175.084,-35.7786 L 175.241,-35.9656 L 175.423,-36.129  L 175.625,-36.2655 L 175.844,-36.3726 L 176.077,-36.448 L 176.317,-36.4904 L 176.561,-36.4989 L 176.804,-36.4734  L 177.041,-36.4143 L 177.267,-36.3229 L 177.479,-36.2008 L 177.671,-36.0505 L 177.841,-35.8749 L 177.984,-35.6774  L 178.099,-35.4618 L 178.182,-35.2324 L 178.233,-34.9935 L 178.25,-34.75 L 178.233,-34.5065 L 178.182,-34.2676  L 178.099,-34.0382 L 177.984,-33.8226 L 177.841,-33.6251 L 177.671,-33.4495 L 177.479,-33.2992 L 177.267,-33.1771  L 177.041,-33.0857 L 176.804,-33.0266 L 176.561,-33.0011 z M 176.519,-34.6417 L 176.534,-34.6454 L 176.548,-34.6511 L 176.562,-34.6588 L 176.574,-34.6683 L 176.584,-34.6793  L 176.593,-34.6917 L 176.6,-34.7053 L 176.606,-34.7197 L 176.609,-34.7347 L 176.61,-34.75 L 176.609,-34.7653  L 176.606,-34.7803 L 176.6,-34.7947 L 176.593,-34.8083 L 176.584,-34.8207 L 176.574,-34.8317 L 176.562,-34.8412  L 176.548,-34.8489 L 176.534,-34.8546 L 176.519,-34.8583 L 176.504,-34.8599 L 176.489,-34.8594 L 176.473,-34.8567  L 176.459,-34.852 L 176.445,-34.8453 L 176.432,-34.8367 L 176.421,-34.8264 L 176.411,-34.8147 L 176.403,-34.8016  L 176.397,-34.7876 L 176.392,-34.7729 L 176.39,-34.7577 L 176.39,-34.7423 L 176.392,-34.7271 L 176.397,-34.7124  L 176.403,-34.6984 L 176.411,-34.6853 L 176.421,-34.6736 L 176.432,-34.6633 L 176.445,-34.6547 L 176.459,-34.648  L 176.473,-34.6433 L 176.489,-34.6406 L 176.504,-34.6401 z M 62.3171,-33.0096 L 62.0766,-33.052 L 61.8445,-33.1274 L 61.625,-33.2345 L 61.4226,-33.371 L 61.2412,-33.5344  L 61.0842,-33.7214 L 60.9548,-33.9284 L 60.8555,-34.1515 L 60.7883,-34.3862 L 60.7543,-34.6279 L 60.7543,-34.8721  L 60.7883,-35.1138 L 60.8555,-35.3485 L 60.9548,-35.5716 L 61.0842,-35.7786 L 61.2412,-35.9656 L 61.4226,-36.129  L 61.625,-36.2655 L 61.8445,-36.3726 L 62.0766,-36.448 L 62.3171,-36.4904 L 62.5611,-36.4989 L 62.8039,-36.4734  L 63.0408,-36.4143 L 63.2671,-36.3229 L 63.4786,-36.2008 L 63.671,-36.0505 L 63.8406,-35.8749 L 63.9841,-35.6774  L 64.0987,-35.4618 L 64.1822,-35.2324 L 64.233,-34.9935 L 64.25,-34.75 L 64.233,-34.5065 L 64.1822,-34.2676  L 64.0987,-34.0382 L 63.9841,-33.8226 L 63.8406,-33.6251 L 63.671,-33.4495 L 63.4786,-33.2992 L 63.2671,-33.1771  L 63.0408,-33.0857 L 62.8039,-33.0266 L 62.5611,-33.0011 z M 62.5191,-34.6417 L 62.534,-34.6454 L 62.5482,-34.6511 L 62.5615,-34.6588 L 62.5736,-34.6683 L 62.5843,-34.6793  L 62.5933,-34.6917 L 62.6005,-34.7053 L 62.6057,-34.7197 L 62.6089,-34.7347 L 62.61,-34.75 L 62.6089,-34.7653  L 62.6057,-34.7803 L 62.6005,-34.7947 L 62.5933,-34.8083 L 62.5843,-34.8207 L 62.5736,-34.8317 L 62.5615,-34.8412  L 62.5482,-34.8489 L 62.534,-34.8546 L 62.5191,-34.8583 L 62.5038,-34.8599 L 62.4885,-34.8594 L 62.4734,-34.8567  L 62.4588,-34.852 L 62.445,-34.8453 L 62.4323,-34.8367 L 62.4209,-34.8264 L 62.411,-34.8147 L 62.4029,-34.8016  L 62.3966,-34.7876 L 62.3924,-34.7729 L 62.3903,-34.7577 L 62.3903,-34.7423 L 62.3924,-34.7271 L 62.3966,-34.7124  L 62.4029,-34.6984 L 62.411,-34.6853 L 62.4209,-34.6736 L 62.4323,-34.6633 L 62.445,-34.6547 L 62.4588,-34.648  L 62.4734,-34.6433 L 62.4885,-34.6406 L 62.5038,-34.6401 z M 21.3728,-10.5329 L 20.5485,-10.6782 L 19.7524,-10.9369 L 19,-11.3038 L 18.306,-11.7719 L 17.684,-12.3321  L 17.1459,-12.9733 L 16.7023,-13.6832 L 16.3618,-14.4479 L 16.1311,-15.2525 L 16.0146,-16.0815 L 16.0146,-16.9185  L 16.1311,-17.7475 L 16.3618,-18.5521 L 16.7023,-19.3168 L 17.1459,-20.0267 L 17.684,-20.6679 L 18.306,-21.2281  L 19,-21.6962 L 19.7524,-22.0631 L 20.5485,-22.3218 L 21.3728,-22.4671 L 22.2094,-22.4963 L 23.0419,-22.4088  L 23.8541,-22.2063 L 24.6302,-21.8928 L 25.3551,-21.4742 L 26.0148,-20.9589 L 26.5963,-20.3567 L 27.0883,-19.6795  L 27.4813,-18.9404 L 27.7676,-18.1538 L 27.9416,-17.335 L 28,-16.5 L 27.9416,-15.665 L 27.7676,-14.8462  L 27.4813,-14.0596 L 27.0883,-13.3205 L 26.5963,-12.6433 L 26.0148,-12.0411 L 25.3551,-11.5258 L 24.6302,-11.1072  L 23.8541,-10.7937 L 23.0419,-10.5912 L 22.2094,-10.5037 z M 22.0191,-16.3917 L 22.034,-16.3954 L 22.0482,-16.4011 L 22.0615,-16.4088 L 22.0736,-16.4183 L 22.0843,-16.4293  L 22.0933,-16.4417 L 22.1005,-16.4553 L 22.1057,-16.4697 L 22.1089,-16.4847 L 22.11,-16.5 L 22.1089,-16.5153  L 22.1057,-16.5303 L 22.1005,-16.5447 L 22.0933,-16.5583 L 22.0843,-16.5707 L 22.0736,-16.5817 L 22.0615,-16.5912  L 22.0482,-16.5989 L 22.034,-16.6046 L 22.0191,-16.6083 L 22.0038,-16.6099 L 21.9885,-16.6094 L 21.9734,-16.6067  L 21.9588,-16.602 L 21.945,-16.5953 L 21.9323,-16.5867 L 21.9209,-16.5764 L 21.911,-16.5647 L 21.9029,-16.5516  L 21.8966,-16.5376 L 21.8924,-16.5229 L 21.8903,-16.5077 L 21.8903,-16.4923 L 21.8924,-16.4771 L 21.8966,-16.4624  L 21.9029,-16.4484 L 21.911,-16.4353 L 21.9209,-16.4236 L 21.9323,-16.4133 L 21.945,-16.4047 L 21.9588,-16.398  L 21.9734,-16.3933 L 21.9885,-16.3906 L 22.0038,-16.3901 z M 70.3728,-10.5329 L 69.5485,-10.6782 L 68.7524,-10.9369 L 68,-11.3038 L 67.306,-11.7719 L 66.684,-12.3321  L 66.1459,-12.9733 L 65.7023,-13.6832 L 65.3618,-14.4479 L 65.1311,-15.2525 L 65.0146,-16.0815 L 65.0146,-16.9185  L 65.1311,-17.7475 L 65.3618,-18.5521 L 65.7023,-19.3168 L 66.1459,-20.0267 L 66.684,-20.6679 L 67.306,-21.2281  L 68,-21.6962 L 68.7524,-22.0631 L 69.5485,-22.3218 L 70.3728,-22.4671 L 71.2094,-22.4963 L 72.0419,-22.4088  L 72.8541,-22.2063 L 73.6302,-21.8928 L 74.3551,-21.4742 L 75.0148,-20.9589 L 75.5963,-20.3567 L 76.0883,-19.6795  L 76.4813,-18.9404 L 76.7676,-18.1538 L 76.9416,-17.335 L 77,-16.5 L 76.9416,-15.665 L 76.7676,-14.8462  L 76.4813,-14.0596 L 76.0883,-13.3205 L 75.5963,-12.6433 L 75.0148,-12.0411 L 74.3551,-11.5258 L 73.6302,-11.1072  L 72.8541,-10.7937 L 72.0419,-10.5912 L 71.2094,-10.5037 z M 71.0191,-16.3917 L 71.034,-16.3954 L 71.0482,-16.4011 L 71.0615,-16.4088 L 71.0736,-16.4183 L 71.0843,-16.4293  L 71.0933,-16.4417 L 71.1005,-16.4553 L 71.1057,-16.4697 L 71.1089,-16.4847 L 71.11,-16.5 L 71.1089,-16.5153  L 71.1057,-16.5303 L 71.1005,-16.5447 L 71.0933,-16.5583 L 71.0843,-16.5707 L 71.0736,-16.5817 L 71.0615,-16.5912  L 71.0482,-16.5989 L 71.034,-16.6046 L 71.0191,-16.6083 L 71.0038,-16.6099 L 70.9885,-16.6094 L 70.9734,-16.6067  L 70.9588,-16.602 L 70.945,-16.5953 L 70.9323,-16.5867 L 70.9209,-16.5764 L 70.911,-16.5647 L 70.9029,-16.5516  L 70.8966,-16.5376 L 70.8924,-16.5229 L 70.8903,-16.5077 L 70.8903,-16.4923 L 70.8924,-16.4771 L 70.8966,-16.4624  L 70.9029,-16.4484 L 70.911,-16.4353 L 70.9209,-16.4236 L 70.9323,-16.4133 L 70.945,-16.4047 L 70.9588,-16.398  L 70.9734,-16.3933 L 70.9885,-16.3906 L 71.0038,-16.3901 z M 119.373,-10.5329 L 118.548,-10.6782 L 117.752,-10.9369 L 117,-11.3038 L 116.306,-11.7719 L 115.684,-12.3321  L 115.146,-12.9733 L 114.702,-13.6832 L 114.362,-14.4479 L 114.131,-15.2525 L 114.015,-16.0815 L 114.015,-16.9185  L 114.131,-17.7475 L 114.362,-18.5521 L 114.702,-19.3168 L 115.146,-20.0267 L 115.684,-20.6679 L 116.306,-21.2281  L 117,-21.6962 L 117.752,-22.0631 L 118.548,-22.3218 L 119.373,-22.4671 L 120.209,-22.4963 L 121.042,-22.4088  L 121.854,-22.2063 L 122.63,-21.8928 L 123.355,-21.4742 L 124.015,-20.9589 L 124.596,-20.3567 L 125.088,-19.6795  L 125.481,-18.9404 L 125.768,-18.1538 L 125.942,-17.335 L 126,-16.5 L 125.942,-15.665 L 125.768,-14.8462  L 125.481,-14.0596 L 125.088,-13.3205 L 124.596,-12.6433 L 124.015,-12.0411 L 123.355,-11.5258 L 122.63,-11.1072  L 121.854,-10.7937 L 121.042,-10.5912 L 120.209,-10.5037 z M 120.019,-16.3917 L 120.034,-16.3954 L 120.048,-16.4011 L 120.062,-16.4088 L 120.074,-16.4183 L 120.084,-16.4293  L 120.093,-16.4417 L 120.1,-16.4553 L 120.106,-16.4697 L 120.109,-16.4847 L 120.11,-16.5 L 120.109,-16.5153  L 120.106,-16.5303 L 120.1,-16.5447 L 120.093,-16.5583 L 120.084,-16.5707 L 120.074,-16.5817 L 120.062,-16.5912  L 120.048,-16.5989 L 120.034,-16.6046 L 120.019,-16.6083 L 120.004,-16.6099 L 119.989,-16.6094 L 119.973,-16.6067  L 119.959,-16.602 L 119.945,-16.5953 L 119.932,-16.5867 L 119.921,-16.5764 L 119.911,-16.5647 L 119.903,-16.5516  L 119.897,-16.5376 L 119.892,-16.5229 L 119.89,-16.5077 L 119.89,-16.4923 L 119.892,-16.4771 L 119.897,-16.4624  L 119.903,-16.4484 L 119.911,-16.4353 L 119.921,-16.4236 L 119.932,-16.4133 L 119.945,-16.4047 L 119.959,-16.398  L 119.973,-16.3933 L 119.989,-16.3906 L 120.004,-16.3901 z M 168.373,-10.5329 L 167.548,-10.6782 L 166.752,-10.9369 L 166,-11.3038 L 165.306,-11.7719 L 164.684,-12.3321  L 164.146,-12.9733 L 163.702,-13.6832 L 163.362,-14.4479 L 163.131,-15.2525 L 163.015,-16.0815 L 163.015,-16.9185  L 163.131,-17.7475 L 163.362,-18.5521 L 163.702,-19.3168 L 164.146,-20.0267 L 164.684,-20.6679 L 165.306,-21.2281  L 166,-21.6962 L 166.752,-22.0631 L 167.548,-22.3218 L 168.373,-22.4671 L 169.209,-22.4963 L 170.042,-22.4088  L 170.854,-22.2063 L 171.63,-21.8928 L 172.355,-21.4742 L 173.015,-20.9589 L 173.596,-20.3567 L 174.088,-19.6795  L 174.481,-18.9404 L 174.768,-18.1538 L 174.942,-17.335 L 175,-16.5 L 174.942,-15.665 L 174.768,-14.8462  L 174.481,-14.0596 L 174.088,-13.3205 L 173.596,-12.6433 L 173.015,-12.0411 L 172.355,-11.5258 L 171.63,-11.1072  L 170.854,-10.7937 L 170.042,-10.5912 L 169.209,-10.5037 z M 169.019,-16.3917 L 169.034,-16.3954 L 169.048,-16.4011 L 169.062,-16.4088 L 169.074,-16.4183 L 169.084,-16.4293  L 169.093,-16.4417 L 169.1,-16.4553 L 169.106,-16.4697 L 169.109,-16.4847 L 169.11,-16.5 L 169.109,-16.5153  L 169.106,-16.5303 L 169.1,-16.5447 L 169.093,-16.5583 L 169.084,-16.5707 L 169.074,-16.5817 L 169.062,-16.5912  L 169.048,-16.5989 L 169.034,-16.6046 L 169.019,-16.6083 L 169.004,-16.6099 L 168.989,-16.6094 L 168.973,-16.6067  L 168.959,-16.602 L 168.945,-16.5953 L 168.932,-16.5867 L 168.921,-16.5764 L 168.911,-16.5647 L 168.903,-16.5516  L 168.897,-16.5376 L 168.892,-16.5229 L 168.89,-16.5077 L 168.89,-16.4923 L 168.892,-16.4771 L 168.897,-16.4624  L 168.903,-16.4484 L 168.911,-16.4353 L 168.921,-16.4236 L 168.932,-16.4133 L 168.945,-16.4047 L 168.959,-16.398  L 168.973,-16.3933 L 168.989,-16.3906 L 169.004,-16.3901 z M 217.373,-10.5329 L 216.548,-10.6782 L 215.752,-10.9369 L 215,-11.3038 L 214.306,-11.7719 L 213.684,-12.3321  L 213.146,-12.9733 L 212.702,-13.6832 L 212.362,-14.4479 L 212.131,-15.2525 L 212.015,-16.0815 L 212.015,-16.9185  L 212.131,-17.7475 L 212.362,-18.5521 L 212.702,-19.3168 L 213.146,-20.0267 L 213.684,-20.6679 L 214.306,-21.2281  L 215,-21.6962 L 215.752,-22.0631 L 216.548,-22.3218 L 217.373,-22.4671 L 218.209,-22.4963 L 219.042,-22.4088  L 219.854,-22.2063 L 220.63,-21.8928 L 221.355,-21.4742 L 222.015,-20.9589 L 222.596,-20.3567 L 223.088,-19.6795  L 223.481,-18.9404 L 223.768,-18.1538 L 223.942,-17.335 L 224,-16.5 L 223.942,-15.665 L 223.768,-14.8462  L 223.481,-14.0596 L 223.088,-13.3205 L 222.596,-12.6433 L 222.015,-12.0411 L 221.355,-11.5258 L 220.63,-11.1072  L 219.854,-10.7937 L 219.042,-10.5912 L 218.209,-10.5037 z M 218.019,-16.3917 L 218.034,-16.3954 L 218.048,-16.4011 L 218.062,-16.4088 L 218.074,-16.4183 L 218.084,-16.4293  L 218.093,-16.4417 L 218.1,-16.4553 L 218.106,-16.4697 L 218.109,-16.4847 L 218.11,-16.5 L 218.109,-16.5153  L 218.106,-16.5303 L 218.1,-16.5447 L 218.093,-16.5583 L 218.084,-16.5707 L 218.074,-16.5817 L 218.062,-16.5912  L 218.048,-16.5989 L 218.034,-16.6046 L 218.019,-16.6083 L 218.004,-16.6099 L 217.989,-16.6094 L 217.973,-16.6067  L 217.959,-16.602 L 217.945,-16.5953 L 217.932,-16.5867 L 217.921,-16.5764 L 217.911,-16.5647 L 217.903,-16.5516  L 217.897,-16.5376 L 217.892,-16.5229 L 217.89,-16.5077 L 217.89,-16.4923 L 217.892,-16.4771 L 217.897,-16.4624  L 217.903,-16.4484 L 217.911,-16.4353 L 217.921,-16.4236 L 217.932,-16.4133 L 217.945,-16.4047 L 217.959,-16.398  L 217.973,-16.3933 L 217.989,-16.3906 L 218.004,-16.3901 z "
     stroke="black"
     fill="lightgray"
     stroke-width="0.5"
     id="path297"
     style="stroke-width:0.2;stroke-miterlimit:4;stroke-dasharray:none;fill:none" />
</svg>
